%YAML 1.1
%TAG !u! tag:unity3d.com,2011:
--- !u!114 &11400000
MonoBehaviour:
  m_ObjectHideFlags: 0
  m_CorrespondingSourceObject: {fileID: 0}
  m_PrefabInstance: {fileID: 0}
  m_PrefabAsset: {fileID: 0}
  m_GameObject: {fileID: 0}
  m_Enabled: 1
  m_EditorHideFlags: 0
  m_Script: {fileID: 11500000, guid: 3158581a951b7f841a10ffa1ad61c747, type: 3}
  m_Name: PlayerCollisionSO
  m_EditorClassIdentifier: 
  expressions:
  - description: Sword Pickup
    _conditions:
    - {fileID: 7643807350164360536, guid: 9a1755081ba1a2d48b0d4fab8c6c409b, type: 3}
    - {fileID: 4423411575482671526, guid: 9a1755081ba1a2d48b0d4fab8c6c409b, type: 3}
    _responses:
    - {fileID: 438408691374566330, guid: 9a1755081ba1a2d48b0d4fab8c6c409b, type: 3}
  - description: Enemy Collision
    _conditions:
    - {fileID: -5504278579210253763, guid: accd3ce887a504c4598e6ce94fe3d348, type: 3}
    - {fileID: 8965969915381395519, guid: accd3ce887a504c4598e6ce94fe3d348, type: 3}
    _responses:
    - {fileID: -8236892460225900750, guid: accd3ce887a504c4598e6ce94fe3d348, type: 3}
  - description: Enemy Collision
    _conditions:
    - {fileID: -5504278579210253763, guid: accd3ce887a504c4598e6ce94fe3d348, type: 3}
    - {fileID: 8965969915381395519, guid: accd3ce887a504c4598e6ce94fe3d348, type: 3}
    _responses:
    - {fileID: -8236892460225900750, guid: accd3ce887a504c4598e6ce94fe3d348, type: 3}
