%YAML 1.1
%TAG !u! tag:unity3d.com,2011:
--- !u!29 &1
OcclusionCullingSettings:
  m_ObjectHideFlags: 0
  serializedVersion: 2
  m_OcclusionBakeSettings:
    smallestOccluder: 5
    smallestHole: 0.25
    backfaceThreshold: 100
  m_SceneGUID: 00000000000000000000000000000000
  m_OcclusionCullingData: {fileID: 0}
--- !u!104 &2
RenderSettings:
  m_ObjectHideFlags: 0
  serializedVersion: 9
  m_Fog: 0
  m_FogColor: {r: 0.5, g: 0.5, b: 0.5, a: 1}
  m_FogMode: 3
  m_FogDensity: 0.01
  m_LinearFogStart: 0
  m_LinearFogEnd: 300
  m_AmbientSkyColor: {r: 0.212, g: 0.227, b: 0.259, a: 1}
  m_AmbientEquatorColor: {r: 0.114, g: 0.125, b: 0.133, a: 1}
  m_AmbientGroundColor: {r: 0.047, g: 0.043, b: 0.035, a: 1}
  m_AmbientIntensity: 1
  m_AmbientMode: 0
  m_SubtractiveShadowColor: {r: 0.42, g: 0.478, b: 0.627, a: 1}
  m_SkyboxMaterial: {fileID: 10304, guid: 0000000000000000f000000000000000, type: 0}
  m_HaloStrength: 0.5
  m_FlareStrength: 1
  m_FlareFadeSpeed: 3
  m_HaloTexture: {fileID: 0}
  m_SpotCookie: {fileID: 10001, guid: 0000000000000000e000000000000000, type: 0}
  m_DefaultReflectionMode: 0
  m_DefaultReflectionResolution: 128
  m_ReflectionBounces: 1
  m_ReflectionIntensity: 1
  m_CustomReflection: {fileID: 0}
  m_Sun: {fileID: 0}
  m_IndirectSpecularColor: {r: 0.4366757, g: 0.48427194, b: 0.5645252, a: 1}
  m_UseRadianceAmbientProbe: 0
--- !u!157 &3
LightmapSettings:
  m_ObjectHideFlags: 0
  serializedVersion: 12
  m_GIWorkflowMode: 1
  m_GISettings:
    serializedVersion: 2
    m_BounceScale: 1
    m_IndirectOutputScale: 1
    m_AlbedoBoost: 1
    m_EnvironmentLightingMode: 0
    m_EnableBakedLightmaps: 1
    m_EnableRealtimeLightmaps: 0
  m_LightmapEditorSettings:
    serializedVersion: 12
    m_Resolution: 2
    m_BakeResolution: 40
    m_AtlasSize: 1024
    m_AO: 0
    m_AOMaxDistance: 1
    m_CompAOExponent: 1
    m_CompAOExponentDirect: 0
    m_ExtractAmbientOcclusion: 0
    m_Padding: 2
    m_LightmapParameters: {fileID: 0}
    m_LightmapsBakeMode: 1
    m_TextureCompression: 1
    m_FinalGather: 0
    m_FinalGatherFiltering: 1
    m_FinalGatherRayCount: 256
    m_ReflectionCompression: 2
    m_MixedBakeMode: 2
    m_BakeBackend: 1
    m_PVRSampling: 1
    m_PVRDirectSampleCount: 32
    m_PVRSampleCount: 512
    m_PVRBounces: 2
    m_PVREnvironmentSampleCount: 256
    m_PVREnvironmentReferencePointCount: 2048
    m_PVRFilteringMode: 1
    m_PVRDenoiserTypeDirect: 1
    m_PVRDenoiserTypeIndirect: 1
    m_PVRDenoiserTypeAO: 1
    m_PVRFilterTypeDirect: 0
    m_PVRFilterTypeIndirect: 0
    m_PVRFilterTypeAO: 0
    m_PVREnvironmentMIS: 1
    m_PVRCulling: 1
    m_PVRFilteringGaussRadiusDirect: 1
    m_PVRFilteringGaussRadiusIndirect: 5
    m_PVRFilteringGaussRadiusAO: 2
    m_PVRFilteringAtrousPositionSigmaDirect: 0.5
    m_PVRFilteringAtrousPositionSigmaIndirect: 2
    m_PVRFilteringAtrousPositionSigmaAO: 1
    m_ExportTrainingData: 0
    m_TrainingDataDestination: TrainingData
    m_LightProbeSampleCountMultiplier: 4
  m_LightingDataAsset: {fileID: 0}
  m_LightingSettings: {fileID: 0}
--- !u!196 &4
NavMeshSettings:
  serializedVersion: 2
  m_ObjectHideFlags: 0
  m_BuildSettings:
    serializedVersion: 2
    agentTypeID: 0
    agentRadius: 0.5
    agentHeight: 2
    agentSlope: 45
    agentClimb: 0.4
    ledgeDropHeight: 0
    maxJumpAcrossDistance: 0
    minRegionArea: 2
    manualCellSize: 0
    cellSize: 0.16666667
    manualTileSize: 0
    tileSize: 256
    accuratePlacement: 0
    maxJobWorkers: 0
    preserveTilesOutsideBounds: 0
    debug:
      m_Flags: 0
  m_NavMeshData: {fileID: 0}
--- !u!1 &37863316
GameObject:
  m_ObjectHideFlags: 0
  m_CorrespondingSourceObject: {fileID: 0}
  m_PrefabInstance: {fileID: 0}
  m_PrefabAsset: {fileID: 0}
  serializedVersion: 6
  m_Component:
  - component: {fileID: 37863320}
  - component: {fileID: 37863319}
  - component: {fileID: 37863318}
  - component: {fileID: 37863317}
  m_Layer: 0
  m_Name: Main Camera
  m_TagString: MainCamera
  m_Icon: {fileID: 0}
  m_NavMeshLayer: 0
  m_StaticEditorFlags: 0
  m_IsActive: 1
--- !u!114 &37863317
MonoBehaviour:
  m_ObjectHideFlags: 0
  m_CorrespondingSourceObject: {fileID: 0}
  m_PrefabInstance: {fileID: 0}
  m_PrefabAsset: {fileID: 0}
  m_GameObject: {fileID: 37863316}
  m_Enabled: 0
  m_EditorHideFlags: 0
  m_Script: {fileID: 11500000, guid: 703fc04f655b05741898f004ba5de71c, type: 3}
  m_Name: 
  m_EditorClassIdentifier: 
  trackObj:
  - {fileID: 0}
  com: {x: 0, y: 0, z: 0}
  vOffset: {x: 0, y: 0, z: 0}
  vZoomInWindow: {x: 0, y: 0, z: 0}
  vZoomOutWindow: {x: 0, y: 0, z: 0}
  zoomOutSpeed: 5
  zoomInSpeed: 5
--- !u!81 &37863318
AudioListener:
  m_ObjectHideFlags: 0
  m_CorrespondingSourceObject: {fileID: 0}
  m_PrefabInstance: {fileID: 0}
  m_PrefabAsset: {fileID: 0}
  m_GameObject: {fileID: 37863316}
  m_Enabled: 1
--- !u!20 &37863319
Camera:
  m_ObjectHideFlags: 0
  m_CorrespondingSourceObject: {fileID: 0}
  m_PrefabInstance: {fileID: 0}
  m_PrefabAsset: {fileID: 0}
  m_GameObject: {fileID: 37863316}
  m_Enabled: 1
  serializedVersion: 2
  m_ClearFlags: 1
  m_BackGroundColor: {r: 0.19215687, g: 0.3019608, b: 0.4745098, a: 0}
  m_projectionMatrixMode: 1
  m_GateFitMode: 2
  m_FOVAxisMode: 0
  m_SensorSize: {x: 36, y: 24}
  m_LensShift: {x: 0, y: 0}
  m_FocalLength: 50
  m_NormalizedViewPortRect:
    serializedVersion: 2
    x: 0
    y: 0
    width: 1
    height: 1
  near clip plane: 0.3
  far clip plane: 1000
  field of view: 60
  orthographic: 0
  orthographic size: 5
  m_Depth: -1
  m_CullingMask:
    serializedVersion: 2
    m_Bits: 4294967295
  m_RenderingPath: -1
  m_TargetTexture: {fileID: 0}
  m_TargetDisplay: 0
  m_TargetEye: 3
  m_HDR: 1
  m_AllowMSAA: 1
  m_AllowDynamicResolution: 0
  m_ForceIntoRT: 0
  m_OcclusionCulling: 1
  m_StereoConvergence: 10
  m_StereoSeparation: 0.022
--- !u!4 &37863320
Transform:
  m_ObjectHideFlags: 0
  m_CorrespondingSourceObject: {fileID: 0}
  m_PrefabInstance: {fileID: 0}
  m_PrefabAsset: {fileID: 0}
  m_GameObject: {fileID: 37863316}
  m_LocalRotation: {x: 0.7071068, y: 0, z: 0, w: 0.7071068}
  m_LocalPosition: {x: 0, y: 18, z: 10}
  m_LocalScale: {x: 1, y: 1, z: 1}
  m_ConstrainProportionsScale: 0
  m_Children: []
  m_Father: {fileID: 0}
  m_RootOrder: 7
  m_LocalEulerAnglesHint: {x: 90, y: 0, z: 0}
--- !u!1001 &74556084
PrefabInstance:
  m_ObjectHideFlags: 0
  serializedVersion: 2
  m_Modification:
    m_TransformParent: {fileID: 0}
    m_Modifications:
    - target: {fileID: 3112748995944472690, guid: 8b6f1ff6d03a2f24aa759cfb4a46377a, type: 3}
      propertyPath: m_RootOrder
      value: 0
      objectReference: {fileID: 0}
    - target: {fileID: 3112748995944472690, guid: 8b6f1ff6d03a2f24aa759cfb4a46377a, type: 3}
      propertyPath: m_LocalPosition.x
      value: 0
      objectReference: {fileID: 0}
    - target: {fileID: 3112748995944472690, guid: 8b6f1ff6d03a2f24aa759cfb4a46377a, type: 3}
      propertyPath: m_LocalPosition.y
      value: 1
      objectReference: {fileID: 0}
    - target: {fileID: 3112748995944472690, guid: 8b6f1ff6d03a2f24aa759cfb4a46377a, type: 3}
      propertyPath: m_LocalPosition.z
      value: 2
      objectReference: {fileID: 0}
    - target: {fileID: 3112748995944472690, guid: 8b6f1ff6d03a2f24aa759cfb4a46377a, type: 3}
      propertyPath: m_LocalRotation.w
      value: 1
      objectReference: {fileID: 0}
    - target: {fileID: 3112748995944472690, guid: 8b6f1ff6d03a2f24aa759cfb4a46377a, type: 3}
      propertyPath: m_LocalRotation.x
      value: 0
      objectReference: {fileID: 0}
    - target: {fileID: 3112748995944472690, guid: 8b6f1ff6d03a2f24aa759cfb4a46377a, type: 3}
      propertyPath: m_LocalRotation.y
      value: 0
      objectReference: {fileID: 0}
    - target: {fileID: 3112748995944472690, guid: 8b6f1ff6d03a2f24aa759cfb4a46377a, type: 3}
      propertyPath: m_LocalRotation.z
      value: 0
      objectReference: {fileID: 0}
    - target: {fileID: 3112748995944472690, guid: 8b6f1ff6d03a2f24aa759cfb4a46377a, type: 3}
      propertyPath: m_LocalEulerAnglesHint.x
      value: 0
      objectReference: {fileID: 0}
    - target: {fileID: 3112748995944472690, guid: 8b6f1ff6d03a2f24aa759cfb4a46377a, type: 3}
      propertyPath: m_LocalEulerAnglesHint.y
      value: 0
      objectReference: {fileID: 0}
    - target: {fileID: 3112748995944472690, guid: 8b6f1ff6d03a2f24aa759cfb4a46377a, type: 3}
      propertyPath: m_LocalEulerAnglesHint.z
      value: 0
      objectReference: {fileID: 0}
    - target: {fileID: 3112748995944472702, guid: 8b6f1ff6d03a2f24aa759cfb4a46377a, type: 3}
      propertyPath: m_Name
      value: Player
      objectReference: {fileID: 0}
    m_RemovedComponents: []
  m_SourcePrefab: {fileID: 100100000, guid: 8b6f1ff6d03a2f24aa759cfb4a46377a, type: 3}
--- !u!1001 &86097683
PrefabInstance:
  m_ObjectHideFlags: 0
  serializedVersion: 2
  m_Modification:
    m_TransformParent: {fileID: 0}
    m_Modifications:
    - target: {fileID: 3260527983463569651, guid: 8ff4679fb649f304daeeec226782c865, type: 3}
      propertyPath: m_RootOrder
      value: 13
      objectReference: {fileID: 0}
    - target: {fileID: 3260527983463569651, guid: 8ff4679fb649f304daeeec226782c865, type: 3}
      propertyPath: m_LocalPosition.x
      value: -11
      objectReference: {fileID: 0}
    - target: {fileID: 3260527983463569651, guid: 8ff4679fb649f304daeeec226782c865, type: 3}
      propertyPath: m_LocalPosition.y
      value: 1
      objectReference: {fileID: 0}
    - target: {fileID: 3260527983463569651, guid: 8ff4679fb649f304daeeec226782c865, type: 3}
      propertyPath: m_LocalPosition.z
      value: 16
      objectReference: {fileID: 0}
    - target: {fileID: 3260527983463569651, guid: 8ff4679fb649f304daeeec226782c865, type: 3}
      propertyPath: m_LocalRotation.w
      value: 1
      objectReference: {fileID: 0}
    - target: {fileID: 3260527983463569651, guid: 8ff4679fb649f304daeeec226782c865, type: 3}
      propertyPath: m_LocalRotation.x
      value: 0
      objectReference: {fileID: 0}
    - target: {fileID: 3260527983463569651, guid: 8ff4679fb649f304daeeec226782c865, type: 3}
      propertyPath: m_LocalRotation.y
      value: 0
      objectReference: {fileID: 0}
    - target: {fileID: 3260527983463569651, guid: 8ff4679fb649f304daeeec226782c865, type: 3}
      propertyPath: m_LocalRotation.z
      value: 0
      objectReference: {fileID: 0}
    - target: {fileID: 3260527983463569651, guid: 8ff4679fb649f304daeeec226782c865, type: 3}
      propertyPath: m_LocalEulerAnglesHint.x
      value: 0
      objectReference: {fileID: 0}
    - target: {fileID: 3260527983463569651, guid: 8ff4679fb649f304daeeec226782c865, type: 3}
      propertyPath: m_LocalEulerAnglesHint.y
      value: 0
      objectReference: {fileID: 0}
    - target: {fileID: 3260527983463569651, guid: 8ff4679fb649f304daeeec226782c865, type: 3}
      propertyPath: m_LocalEulerAnglesHint.z
      value: 0
      objectReference: {fileID: 0}
    - target: {fileID: 4005500526663712273, guid: 8ff4679fb649f304daeeec226782c865, type: 3}
      propertyPath: m_Name
      value: WaypointDefault
      objectReference: {fileID: 0}
    m_RemovedComponents: []
  m_SourcePrefab: {fileID: 100100000, guid: 8ff4679fb649f304daeeec226782c865, type: 3}
--- !u!1 &116037288
GameObject:
  m_ObjectHideFlags: 0
  m_CorrespondingSourceObject: {fileID: 0}
  m_PrefabInstance: {fileID: 0}
  m_PrefabAsset: {fileID: 0}
  serializedVersion: 6
  m_Component:
  - component: {fileID: 116037293}
  - component: {fileID: 116037292}
  - component: {fileID: 116037291}
  - component: {fileID: 116037290}
  - component: {fileID: 116037289}
  m_Layer: 0
  m_Name: TestCapsule
  m_TagString: Untagged
  m_Icon: {fileID: 0}
  m_NavMeshLayer: 0
  m_StaticEditorFlags: 0
  m_IsActive: 1
--- !u!114 &116037289
MonoBehaviour:
  m_ObjectHideFlags: 0
  m_CorrespondingSourceObject: {fileID: 0}
  m_PrefabInstance: {fileID: 0}
  m_PrefabAsset: {fileID: 0}
  m_GameObject: {fileID: 116037288}
  m_Enabled: 1
  m_EditorHideFlags: 0
  m_Script: {fileID: 11500000, guid: 9a439e29257de1f48bb9cf41a63e6a00, type: 3}
  m_Name: 
  m_EditorClassIdentifier: 
  ControlPoints:
  - {fileID: 768170264}
  - {fileID: 1962411105}
  - {fileID: 383781006}
  - {fileID: 1962411105}
  - {fileID: 768170264}
  - {fileID: 1603553026}
  - {fileID: 1166752533}
  - {fileID: 1603553026}
  - {fileID: 768170264}
  - {fileID: 1962411105}
  - {fileID: 383781006}
  dt: 0.01
  HeadObj: {fileID: 116037288}
  isLooping: 1
--- !u!136 &116037290
CapsuleCollider:
  m_ObjectHideFlags: 0
  m_CorrespondingSourceObject: {fileID: 0}
  m_PrefabInstance: {fileID: 0}
  m_PrefabAsset: {fileID: 0}
  m_GameObject: {fileID: 116037288}
  m_Material: {fileID: 0}
  m_IsTrigger: 0
  m_Enabled: 1
  m_Radius: 0.5
  m_Height: 2
  m_Direction: 1
  m_Center: {x: 0, y: 0, z: 0}
--- !u!23 &116037291
MeshRenderer:
  m_ObjectHideFlags: 0
  m_CorrespondingSourceObject: {fileID: 0}
  m_PrefabInstance: {fileID: 0}
  m_PrefabAsset: {fileID: 0}
  m_GameObject: {fileID: 116037288}
  m_Enabled: 1
  m_CastShadows: 1
  m_ReceiveShadows: 1
  m_DynamicOccludee: 1
  m_StaticShadowCaster: 0
  m_MotionVectors: 1
  m_LightProbeUsage: 1
  m_ReflectionProbeUsage: 1
  m_RayTracingMode: 2
  m_RayTraceProcedural: 0
  m_RenderingLayerMask: 1
  m_RendererPriority: 0
  m_Materials:
  - {fileID: 10303, guid: 0000000000000000f000000000000000, type: 0}
  m_StaticBatchInfo:
    firstSubMesh: 0
    subMeshCount: 0
  m_StaticBatchRoot: {fileID: 0}
  m_ProbeAnchor: {fileID: 0}
  m_LightProbeVolumeOverride: {fileID: 0}
  m_ScaleInLightmap: 1
  m_ReceiveGI: 1
  m_PreserveUVs: 0
  m_IgnoreNormalsForChartDetection: 0
  m_ImportantGI: 0
  m_StitchLightmapSeams: 1
  m_SelectedEditorRenderState: 3
  m_MinimumChartSize: 4
  m_AutoUVMaxDistance: 0.5
  m_AutoUVMaxAngle: 89
  m_LightmapParameters: {fileID: 0}
  m_SortingLayerID: 0
  m_SortingLayer: 0
  m_SortingOrder: 0
  m_AdditionalVertexStreams: {fileID: 0}
--- !u!33 &116037292
MeshFilter:
  m_ObjectHideFlags: 0
  m_CorrespondingSourceObject: {fileID: 0}
  m_PrefabInstance: {fileID: 0}
  m_PrefabAsset: {fileID: 0}
  m_GameObject: {fileID: 116037288}
  m_Mesh: {fileID: 10208, guid: 0000000000000000e000000000000000, type: 0}
--- !u!4 &116037293
Transform:
  m_ObjectHideFlags: 0
  m_CorrespondingSourceObject: {fileID: 0}
  m_PrefabInstance: {fileID: 0}
  m_PrefabAsset: {fileID: 0}
  m_GameObject: {fileID: 116037288}
  m_LocalRotation: {x: 0, y: 0, z: 0, w: 1}
  m_LocalPosition: {x: 0, y: 1, z: 16}
  m_LocalScale: {x: 1, y: 1, z: 1}
  m_ConstrainProportionsScale: 0
  m_Children: []
  m_Father: {fileID: 0}
  m_RootOrder: 8
  m_LocalEulerAnglesHint: {x: 0, y: 0, z: 0}
--- !u!1001 &137326909
PrefabInstance:
  m_ObjectHideFlags: 0
  serializedVersion: 2
  m_Modification:
    m_TransformParent: {fileID: 0}
    m_Modifications:
    - target: {fileID: 3260527983463569651, guid: 8ff4679fb649f304daeeec226782c865, type: 3}
      propertyPath: m_RootOrder
      value: 11
      objectReference: {fileID: 0}
    - target: {fileID: 3260527983463569651, guid: 8ff4679fb649f304daeeec226782c865, type: 3}
      propertyPath: m_LocalPosition.x
      value: 0
      objectReference: {fileID: 0}
    - target: {fileID: 3260527983463569651, guid: 8ff4679fb649f304daeeec226782c865, type: 3}
      propertyPath: m_LocalPosition.y
      value: 1
      objectReference: {fileID: 0}
    - target: {fileID: 3260527983463569651, guid: 8ff4679fb649f304daeeec226782c865, type: 3}
      propertyPath: m_LocalPosition.z
      value: 16
      objectReference: {fileID: 0}
    - target: {fileID: 3260527983463569651, guid: 8ff4679fb649f304daeeec226782c865, type: 3}
      propertyPath: m_LocalRotation.w
      value: 1
      objectReference: {fileID: 0}
    - target: {fileID: 3260527983463569651, guid: 8ff4679fb649f304daeeec226782c865, type: 3}
      propertyPath: m_LocalRotation.x
      value: 0
      objectReference: {fileID: 0}
    - target: {fileID: 3260527983463569651, guid: 8ff4679fb649f304daeeec226782c865, type: 3}
      propertyPath: m_LocalRotation.y
      value: 0
      objectReference: {fileID: 0}
    - target: {fileID: 3260527983463569651, guid: 8ff4679fb649f304daeeec226782c865, type: 3}
      propertyPath: m_LocalRotation.z
      value: 0
      objectReference: {fileID: 0}
    - target: {fileID: 3260527983463569651, guid: 8ff4679fb649f304daeeec226782c865, type: 3}
      propertyPath: m_LocalEulerAnglesHint.x
      value: 0
      objectReference: {fileID: 0}
    - target: {fileID: 3260527983463569651, guid: 8ff4679fb649f304daeeec226782c865, type: 3}
      propertyPath: m_LocalEulerAnglesHint.y
      value: 0
      objectReference: {fileID: 0}
    - target: {fileID: 3260527983463569651, guid: 8ff4679fb649f304daeeec226782c865, type: 3}
      propertyPath: m_LocalEulerAnglesHint.z
      value: 0
      objectReference: {fileID: 0}
    - target: {fileID: 4005500526663712273, guid: 8ff4679fb649f304daeeec226782c865, type: 3}
      propertyPath: m_Name
      value: WaypointDefault
      objectReference: {fileID: 0}
    m_RemovedComponents: []
  m_SourcePrefab: {fileID: 100100000, guid: 8ff4679fb649f304daeeec226782c865, type: 3}
--- !u!1 &205264473 stripped
GameObject:
  m_CorrespondingSourceObject: {fileID: 3579370308942170807, guid: db064811eac3cf043b501f2c91705438, type: 3}
  m_PrefabInstance: {fileID: 1648197065}
  m_PrefabAsset: {fileID: 0}
--- !u!114 &205264474 stripped
MonoBehaviour:
  m_CorrespondingSourceObject: {fileID: 5460079875190739672, guid: db064811eac3cf043b501f2c91705438, type: 3}
  m_PrefabInstance: {fileID: 1648197065}
  m_PrefabAsset: {fileID: 0}
  m_GameObject: {fileID: 205264473}
  m_Enabled: 1
  m_EditorHideFlags: 0
  m_Script: {fileID: 11500000, guid: 5d2eedc745503324798f5f7a05f1de85, type: 3}
  m_Name: 
  m_EditorClassIdentifier: 
--- !u!1 &383781006 stripped
GameObject:
  m_CorrespondingSourceObject: {fileID: 4005500526663712273, guid: 8ff4679fb649f304daeeec226782c865, type: 3}
  m_PrefabInstance: {fileID: 2131940903}
  m_PrefabAsset: {fileID: 0}
--- !u!1001 &456218920
PrefabInstance:
  m_ObjectHideFlags: 0
  serializedVersion: 2
  m_Modification:
    m_TransformParent: {fileID: 0}
    m_Modifications:
    - target: {fileID: 5091578689936157680, guid: af76b986c972e874dadb89b8c79e7b14, type: 3}
      propertyPath: m_RootOrder
      value: 2
      objectReference: {fileID: 0}
    - target: {fileID: 5091578689936157680, guid: af76b986c972e874dadb89b8c79e7b14, type: 3}
      propertyPath: m_LocalPosition.x
      value: 0.026630163
      objectReference: {fileID: 0}
    - target: {fileID: 5091578689936157680, guid: af76b986c972e874dadb89b8c79e7b14, type: 3}
      propertyPath: m_LocalPosition.y
      value: 0.075002864
      objectReference: {fileID: 0}
    - target: {fileID: 5091578689936157680, guid: af76b986c972e874dadb89b8c79e7b14, type: 3}
      propertyPath: m_LocalPosition.z
      value: 33.06358
      objectReference: {fileID: 0}
    - target: {fileID: 5091578689936157680, guid: af76b986c972e874dadb89b8c79e7b14, type: 3}
      propertyPath: m_LocalRotation.w
      value: 0.70710784
      objectReference: {fileID: 0}
    - target: {fileID: 5091578689936157680, guid: af76b986c972e874dadb89b8c79e7b14, type: 3}
      propertyPath: m_LocalRotation.x
      value: 0.70710576
      objectReference: {fileID: 0}
    - target: {fileID: 5091578689936157680, guid: af76b986c972e874dadb89b8c79e7b14, type: 3}
      propertyPath: m_LocalRotation.y
      value: -0
      objectReference: {fileID: 0}
    - target: {fileID: 5091578689936157680, guid: af76b986c972e874dadb89b8c79e7b14, type: 3}
      propertyPath: m_LocalRotation.z
      value: -0
      objectReference: {fileID: 0}
    - target: {fileID: 5091578689936157680, guid: af76b986c972e874dadb89b8c79e7b14, type: 3}
      propertyPath: m_LocalEulerAnglesHint.x
      value: 90
      objectReference: {fileID: 0}
    - target: {fileID: 5091578689936157680, guid: af76b986c972e874dadb89b8c79e7b14, type: 3}
      propertyPath: m_LocalEulerAnglesHint.y
      value: 0
      objectReference: {fileID: 0}
    - target: {fileID: 5091578689936157680, guid: af76b986c972e874dadb89b8c79e7b14, type: 3}
      propertyPath: m_LocalEulerAnglesHint.z
      value: 0
      objectReference: {fileID: 0}
    - target: {fileID: 5091578689936157692, guid: af76b986c972e874dadb89b8c79e7b14, type: 3}
      propertyPath: m_Name
      value: Greatsword
      objectReference: {fileID: 0}
    m_RemovedComponents: []
  m_SourcePrefab: {fileID: 100100000, guid: af76b986c972e874dadb89b8c79e7b14, type: 3}
--- !u!1001 &655043133
PrefabInstance:
  m_ObjectHideFlags: 0
  serializedVersion: 2
  m_Modification:
    m_TransformParent: {fileID: 0}
    m_Modifications:
    - target: {fileID: 7920736030880350361, guid: 029042ffb9d88d048be16aaf59504022, type: 3}
      propertyPath: PlayerGO
      value: 
      objectReference: {fileID: 1573001838}
    - target: {fileID: 9132606907152261517, guid: 029042ffb9d88d048be16aaf59504022, type: 3}
      propertyPath: m_Name
      value: GameManager
      objectReference: {fileID: 0}
    - target: {fileID: 9132606907152261619, guid: 029042ffb9d88d048be16aaf59504022, type: 3}
      propertyPath: m_RootOrder
      value: 6
      objectReference: {fileID: 0}
    - target: {fileID: 9132606907152261619, guid: 029042ffb9d88d048be16aaf59504022, type: 3}
      propertyPath: m_LocalPosition.x
      value: 0
      objectReference: {fileID: 0}
    - target: {fileID: 9132606907152261619, guid: 029042ffb9d88d048be16aaf59504022, type: 3}
      propertyPath: m_LocalPosition.y
      value: 0
      objectReference: {fileID: 0}
    - target: {fileID: 9132606907152261619, guid: 029042ffb9d88d048be16aaf59504022, type: 3}
      propertyPath: m_LocalPosition.z
      value: 0
      objectReference: {fileID: 0}
    - target: {fileID: 9132606907152261619, guid: 029042ffb9d88d048be16aaf59504022, type: 3}
      propertyPath: m_LocalRotation.w
      value: 1
      objectReference: {fileID: 0}
    - target: {fileID: 9132606907152261619, guid: 029042ffb9d88d048be16aaf59504022, type: 3}
      propertyPath: m_LocalRotation.x
      value: 0
      objectReference: {fileID: 0}
    - target: {fileID: 9132606907152261619, guid: 029042ffb9d88d048be16aaf59504022, type: 3}
      propertyPath: m_LocalRotation.y
      value: 0
      objectReference: {fileID: 0}
    - target: {fileID: 9132606907152261619, guid: 029042ffb9d88d048be16aaf59504022, type: 3}
      propertyPath: m_LocalRotation.z
      value: 0
      objectReference: {fileID: 0}
    - target: {fileID: 9132606907152261619, guid: 029042ffb9d88d048be16aaf59504022, type: 3}
      propertyPath: m_LocalEulerAnglesHint.x
      value: 0
      objectReference: {fileID: 0}
    - target: {fileID: 9132606907152261619, guid: 029042ffb9d88d048be16aaf59504022, type: 3}
      propertyPath: m_LocalEulerAnglesHint.y
      value: 0
      objectReference: {fileID: 0}
    - target: {fileID: 9132606907152261619, guid: 029042ffb9d88d048be16aaf59504022, type: 3}
      propertyPath: m_LocalEulerAnglesHint.z
      value: 0
      objectReference: {fileID: 0}
    m_RemovedComponents: []
  m_SourcePrefab: {fileID: 100100000, guid: 029042ffb9d88d048be16aaf59504022, type: 3}
--- !u!1 &768170264 stripped
GameObject:
  m_CorrespondingSourceObject: {fileID: 4005500526663712273, guid: 8ff4679fb649f304daeeec226782c865, type: 3}
  m_PrefabInstance: {fileID: 137326909}
  m_PrefabAsset: {fileID: 0}
--- !u!4 &845327638 stripped
Transform:
  m_CorrespondingSourceObject: {fileID: 7462833644942460673, guid: 1bf3c53846f793f45bf63ccc81d2ec52, type: 3}
  m_PrefabInstance: {fileID: 953966207}
  m_PrefabAsset: {fileID: 0}
--- !u!1001 &953966207
PrefabInstance:
  m_ObjectHideFlags: 0
  serializedVersion: 2
  m_Modification:
    m_TransformParent: {fileID: 0}
    m_Modifications:
    - target: {fileID: 772935091743623337, guid: 1bf3c53846f793f45bf63ccc81d2ec52, type: 3}
      propertyPath: m_CastShadows
      value: 0
      objectReference: {fileID: 0}
    - target: {fileID: 772935091743623337, guid: 1bf3c53846f793f45bf63ccc81d2ec52, type: 3}
      propertyPath: m_ReceiveShadows
      value: 0
      objectReference: {fileID: 0}
    - target: {fileID: 2949403971269997748, guid: 1bf3c53846f793f45bf63ccc81d2ec52, type: 3}
      propertyPath: m_RootOrder
      value: 7
      objectReference: {fileID: 0}
    - target: {fileID: 6323193469164956252, guid: 1bf3c53846f793f45bf63ccc81d2ec52, type: 3}
      propertyPath: exitDoor
      value: 
      objectReference: {fileID: 1210824624}
    - target: {fileID: 6323193469164956252, guid: 1bf3c53846f793f45bf63ccc81d2ec52, type: 3}
      propertyPath: doorExitGO
      value: 
      objectReference: {fileID: 205264473}
    - target: {fileID: 7462833644942460673, guid: 1bf3c53846f793f45bf63ccc81d2ec52, type: 3}
      propertyPath: m_RootOrder
      value: 3
      objectReference: {fileID: 0}
    - target: {fileID: 7462833644942460673, guid: 1bf3c53846f793f45bf63ccc81d2ec52, type: 3}
      propertyPath: m_LocalPosition.x
      value: 0
      objectReference: {fileID: 0}
    - target: {fileID: 7462833644942460673, guid: 1bf3c53846f793f45bf63ccc81d2ec52, type: 3}
      propertyPath: m_LocalPosition.y
      value: 0
      objectReference: {fileID: 0}
    - target: {fileID: 7462833644942460673, guid: 1bf3c53846f793f45bf63ccc81d2ec52, type: 3}
      propertyPath: m_LocalPosition.z
      value: 0
      objectReference: {fileID: 0}
    - target: {fileID: 7462833644942460673, guid: 1bf3c53846f793f45bf63ccc81d2ec52, type: 3}
      propertyPath: m_LocalRotation.w
      value: 1
      objectReference: {fileID: 0}
    - target: {fileID: 7462833644942460673, guid: 1bf3c53846f793f45bf63ccc81d2ec52, type: 3}
      propertyPath: m_LocalRotation.x
      value: 0
      objectReference: {fileID: 0}
    - target: {fileID: 7462833644942460673, guid: 1bf3c53846f793f45bf63ccc81d2ec52, type: 3}
      propertyPath: m_LocalRotation.y
      value: 0
      objectReference: {fileID: 0}
    - target: {fileID: 7462833644942460673, guid: 1bf3c53846f793f45bf63ccc81d2ec52, type: 3}
      propertyPath: m_LocalRotation.z
      value: 0
      objectReference: {fileID: 0}
    - target: {fileID: 7462833644942460673, guid: 1bf3c53846f793f45bf63ccc81d2ec52, type: 3}
      propertyPath: m_LocalEulerAnglesHint.x
      value: 0
      objectReference: {fileID: 0}
    - target: {fileID: 7462833644942460673, guid: 1bf3c53846f793f45bf63ccc81d2ec52, type: 3}
      propertyPath: m_LocalEulerAnglesHint.y
      value: 0
      objectReference: {fileID: 0}
    - target: {fileID: 7462833644942460673, guid: 1bf3c53846f793f45bf63ccc81d2ec52, type: 3}
      propertyPath: m_LocalEulerAnglesHint.z
      value: 0
      objectReference: {fileID: 0}
    - target: {fileID: 7582681201285737683, guid: 1bf3c53846f793f45bf63ccc81d2ec52, type: 3}
      propertyPath: m_Name
      value: DungeonRoom
      objectReference: {fileID: 0}
    m_RemovedComponents: []
  m_SourcePrefab: {fileID: 100100000, guid: 1bf3c53846f793f45bf63ccc81d2ec52, type: 3}
--- !u!1 &953966208 stripped
GameObject:
  m_CorrespondingSourceObject: {fileID: 6407336651002705278, guid: 1bf3c53846f793f45bf63ccc81d2ec52, type: 3}
  m_PrefabInstance: {fileID: 953966207}
  m_PrefabAsset: {fileID: 0}
--- !u!1 &992912207
GameObject:
  m_ObjectHideFlags: 0
  m_CorrespondingSourceObject: {fileID: 0}
  m_PrefabInstance: {fileID: 0}
  m_PrefabAsset: {fileID: 0}
  serializedVersion: 6
  m_Component:
  - component: {fileID: 992912209}
  - component: {fileID: 992912208}
  m_Layer: 0
  m_Name: Directional Light
  m_TagString: Untagged
  m_Icon: {fileID: 0}
  m_NavMeshLayer: 0
  m_StaticEditorFlags: 0
  m_IsActive: 1
--- !u!108 &992912208
Light:
  m_ObjectHideFlags: 0
  m_CorrespondingSourceObject: {fileID: 0}
  m_PrefabInstance: {fileID: 0}
  m_PrefabAsset: {fileID: 0}
  m_GameObject: {fileID: 992912207}
  m_Enabled: 1
  serializedVersion: 10
  m_Type: 1
  m_Shape: 0
  m_Color: {r: 1, g: 0.95686275, b: 0.8392157, a: 1}
  m_Intensity: 1
  m_Range: 10
  m_SpotAngle: 30
  m_InnerSpotAngle: 21.80208
  m_CookieSize: 10
  m_Shadows:
    m_Type: 2
    m_Resolution: -1
    m_CustomResolution: -1
    m_Strength: 1
    m_Bias: 0.05
    m_NormalBias: 0.4
    m_NearPlane: 0.2
    m_CullingMatrixOverride:
      e00: 1
      e01: 0
      e02: 0
      e03: 0
      e10: 0
      e11: 1
      e12: 0
      e13: 0
      e20: 0
      e21: 0
      e22: 1
      e23: 0
      e30: 0
      e31: 0
      e32: 0
      e33: 1
    m_UseCullingMatrixOverride: 0
  m_Cookie: {fileID: 0}
  m_DrawHalo: 0
  m_Flare: {fileID: 0}
  m_RenderMode: 0
  m_CullingMask:
    serializedVersion: 2
    m_Bits: 4294967295
  m_RenderingLayerMask: 1
  m_Lightmapping: 4
  m_LightShadowCasterMode: 0
  m_AreaSize: {x: 1, y: 1}
  m_BounceIntensity: 1
  m_ColorTemperature: 6570
  m_UseColorTemperature: 0
  m_BoundingSphereOverride: {x: 0, y: 0, z: 0, w: 0}
  m_UseBoundingSphereOverride: 0
  m_UseViewFrustumForShadowCasterCull: 1
  m_ShadowRadius: 0
  m_ShadowAngle: 0
--- !u!4 &992912209
Transform:
  m_ObjectHideFlags: 0
  m_CorrespondingSourceObject: {fileID: 0}
  m_PrefabInstance: {fileID: 0}
  m_PrefabAsset: {fileID: 0}
  m_GameObject: {fileID: 992912207}
  m_LocalRotation: {x: 0.7071068, y: 0, z: 0, w: 0.7071068}
  m_LocalPosition: {x: 0, y: 0, z: 0}
  m_LocalScale: {x: 1, y: 1, z: 1}
  m_ConstrainProportionsScale: 0
  m_Children: []
  m_Father: {fileID: 0}
  m_RootOrder: 5
  m_LocalEulerAnglesHint: {x: 90, y: 0, z: 0}
--- !u!1 &1166752533 stripped
GameObject:
  m_CorrespondingSourceObject: {fileID: 4005500526663712273, guid: 8ff4679fb649f304daeeec226782c865, type: 3}
  m_PrefabInstance: {fileID: 86097683}
  m_PrefabAsset: {fileID: 0}
--- !u!1001 &1210824623
PrefabInstance:
  m_ObjectHideFlags: 0
  serializedVersion: 2
  m_Modification:
    m_TransformParent: {fileID: 1469580109}
    m_Modifications:
    - target: {fileID: 3579370308942170807, guid: db064811eac3cf043b501f2c91705438, type: 3}
      propertyPath: m_Name
      value: DungeonDoor
      objectReference: {fileID: 0}
    - target: {fileID: 4055907576919239177, guid: db064811eac3cf043b501f2c91705438, type: 3}
      propertyPath: m_RootOrder
      value: 6
      objectReference: {fileID: 0}
    - target: {fileID: 4055907576919239177, guid: db064811eac3cf043b501f2c91705438, type: 3}
      propertyPath: m_LocalPosition.x
      value: 0
      objectReference: {fileID: 0}
    - target: {fileID: 4055907576919239177, guid: db064811eac3cf043b501f2c91705438, type: 3}
      propertyPath: m_LocalPosition.y
      value: 0
      objectReference: {fileID: 0}
    - target: {fileID: 4055907576919239177, guid: db064811eac3cf043b501f2c91705438, type: 3}
      propertyPath: m_LocalPosition.z
      value: 18.75
      objectReference: {fileID: 0}
    - target: {fileID: 4055907576919239177, guid: db064811eac3cf043b501f2c91705438, type: 3}
      propertyPath: m_LocalRotation.w
      value: 0
      objectReference: {fileID: 0}
    - target: {fileID: 4055907576919239177, guid: db064811eac3cf043b501f2c91705438, type: 3}
      propertyPath: m_LocalRotation.x
      value: 0
      objectReference: {fileID: 0}
    - target: {fileID: 4055907576919239177, guid: db064811eac3cf043b501f2c91705438, type: 3}
      propertyPath: m_LocalRotation.y
      value: 1
      objectReference: {fileID: 0}
    - target: {fileID: 4055907576919239177, guid: db064811eac3cf043b501f2c91705438, type: 3}
      propertyPath: m_LocalRotation.z
      value: 0
      objectReference: {fileID: 0}
    - target: {fileID: 4055907576919239177, guid: db064811eac3cf043b501f2c91705438, type: 3}
      propertyPath: m_LocalEulerAnglesHint.x
      value: 0
      objectReference: {fileID: 0}
    - target: {fileID: 4055907576919239177, guid: db064811eac3cf043b501f2c91705438, type: 3}
      propertyPath: m_LocalEulerAnglesHint.y
      value: 180
      objectReference: {fileID: 0}
    - target: {fileID: 4055907576919239177, guid: db064811eac3cf043b501f2c91705438, type: 3}
      propertyPath: m_LocalEulerAnglesHint.z
      value: 0
      objectReference: {fileID: 0}
    - target: {fileID: 5460079875190739672, guid: db064811eac3cf043b501f2c91705438, type: 3}
      propertyPath: exitDoor
      value: 
      objectReference: {fileID: 1368236019}
    - target: {fileID: 5460079875190739672, guid: db064811eac3cf043b501f2c91705438, type: 3}
      propertyPath: cameraLogic
      value: 
      objectReference: {fileID: 0}
    - target: {fileID: 5460079875190739672, guid: db064811eac3cf043b501f2c91705438, type: 3}
      propertyPath: cameraWayPoint
      value: 
      objectReference: {fileID: 1469580111}
    m_RemovedComponents: []
  m_SourcePrefab: {fileID: 100100000, guid: db064811eac3cf043b501f2c91705438, type: 3}
--- !u!114 &1210824624 stripped
MonoBehaviour:
  m_CorrespondingSourceObject: {fileID: 5460079875190739672, guid: db064811eac3cf043b501f2c91705438, type: 3}
  m_PrefabInstance: {fileID: 1210824623}
  m_PrefabAsset: {fileID: 0}
  m_GameObject: {fileID: 0}
  m_Enabled: 1
  m_EditorHideFlags: 0
  m_Script: {fileID: 11500000, guid: 5d2eedc745503324798f5f7a05f1de85, type: 3}
  m_Name: 
  m_EditorClassIdentifier: 
--- !u!1001 &1248180726
PrefabInstance:
  m_ObjectHideFlags: 0
  serializedVersion: 2
  m_Modification:
    m_TransformParent: {fileID: 0}
    m_Modifications:
    - target: {fileID: 3258439697683497424, guid: 415147f51aebf6b41aae3f45d8cd7116, type: 3}
      propertyPath: m_Name
      value: KeyItem
      objectReference: {fileID: 0}
    - target: {fileID: 7927177909056699248, guid: 415147f51aebf6b41aae3f45d8cd7116, type: 3}
      propertyPath: m_RootOrder
      value: 1
      objectReference: {fileID: 0}
    - target: {fileID: 7927177909056699248, guid: 415147f51aebf6b41aae3f45d8cd7116, type: 3}
      propertyPath: m_LocalPosition.x
      value: 0
      objectReference: {fileID: 0}
    - target: {fileID: 7927177909056699248, guid: 415147f51aebf6b41aae3f45d8cd7116, type: 3}
      propertyPath: m_LocalPosition.y
      value: 0
      objectReference: {fileID: 0}
    - target: {fileID: 7927177909056699248, guid: 415147f51aebf6b41aae3f45d8cd7116, type: 3}
      propertyPath: m_LocalPosition.z
      value: 9
      objectReference: {fileID: 0}
    - target: {fileID: 7927177909056699248, guid: 415147f51aebf6b41aae3f45d8cd7116, type: 3}
      propertyPath: m_LocalRotation.w
      value: 1
      objectReference: {fileID: 0}
    - target: {fileID: 7927177909056699248, guid: 415147f51aebf6b41aae3f45d8cd7116, type: 3}
      propertyPath: m_LocalRotation.x
      value: 0
      objectReference: {fileID: 0}
    - target: {fileID: 7927177909056699248, guid: 415147f51aebf6b41aae3f45d8cd7116, type: 3}
      propertyPath: m_LocalRotation.y
      value: 0
      objectReference: {fileID: 0}
    - target: {fileID: 7927177909056699248, guid: 415147f51aebf6b41aae3f45d8cd7116, type: 3}
      propertyPath: m_LocalRotation.z
      value: 0
      objectReference: {fileID: 0}
    - target: {fileID: 7927177909056699248, guid: 415147f51aebf6b41aae3f45d8cd7116, type: 3}
      propertyPath: m_LocalEulerAnglesHint.x
      value: 0
      objectReference: {fileID: 0}
    - target: {fileID: 7927177909056699248, guid: 415147f51aebf6b41aae3f45d8cd7116, type: 3}
      propertyPath: m_LocalEulerAnglesHint.y
      value: 0
      objectReference: {fileID: 0}
    - target: {fileID: 7927177909056699248, guid: 415147f51aebf6b41aae3f45d8cd7116, type: 3}
      propertyPath: m_LocalEulerAnglesHint.z
      value: 0
      objectReference: {fileID: 0}
    m_RemovedComponents: []
  m_SourcePrefab: {fileID: 100100000, guid: 415147f51aebf6b41aae3f45d8cd7116, type: 3}
--- !u!1 &1368236017 stripped
GameObject:
  m_CorrespondingSourceObject: {fileID: 3290474458236678707, guid: 1bf3c53846f793f45bf63ccc81d2ec52, type: 3}
  m_PrefabInstance: {fileID: 953966207}
  m_PrefabAsset: {fileID: 0}
--- !u!114 &1368236019 stripped
MonoBehaviour:
  m_CorrespondingSourceObject: {fileID: 6323193469164956252, guid: 1bf3c53846f793f45bf63ccc81d2ec52, type: 3}
  m_PrefabInstance: {fileID: 953966207}
  m_PrefabAsset: {fileID: 0}
  m_GameObject: {fileID: 1368236017}
  m_Enabled: 1
  m_EditorHideFlags: 0
  m_Script: {fileID: 11500000, guid: 5d2eedc745503324798f5f7a05f1de85, type: 3}
  m_Name: 
  m_EditorClassIdentifier: 
--- !u!1001 &1469580108
PrefabInstance:
  m_ObjectHideFlags: 0
  serializedVersion: 2
  m_Modification:
    m_TransformParent: {fileID: 0}
    m_Modifications:
    - target: {fileID: 2949403971269997748, guid: 1bf3c53846f793f45bf63ccc81d2ec52, type: 3}
      propertyPath: m_RootOrder
      value: 7
      objectReference: {fileID: 0}
    - target: {fileID: 3923299744227297741, guid: 1bf3c53846f793f45bf63ccc81d2ec52, type: 3}
      propertyPath: m_Enabled
      value: 1
      objectReference: {fileID: 0}
    - target: {fileID: 4352491385040430388, guid: 1bf3c53846f793f45bf63ccc81d2ec52, type: 3}
      propertyPath: m_Enabled
      value: 1
      objectReference: {fileID: 0}
    - target: {fileID: 6323193469164956252, guid: 1bf3c53846f793f45bf63ccc81d2ec52, type: 3}
      propertyPath: exitDoor
      value: 
      objectReference: {fileID: 205264474}
    - target: {fileID: 7462833644942460673, guid: 1bf3c53846f793f45bf63ccc81d2ec52, type: 3}
      propertyPath: m_RootOrder
      value: 4
      objectReference: {fileID: 0}
    - target: {fileID: 7462833644942460673, guid: 1bf3c53846f793f45bf63ccc81d2ec52, type: 3}
      propertyPath: m_LocalPosition.x
      value: 0
      objectReference: {fileID: 0}
    - target: {fileID: 7462833644942460673, guid: 1bf3c53846f793f45bf63ccc81d2ec52, type: 3}
      propertyPath: m_LocalPosition.y
      value: 0
      objectReference: {fileID: 0}
    - target: {fileID: 7462833644942460673, guid: 1bf3c53846f793f45bf63ccc81d2ec52, type: 3}
      propertyPath: m_LocalPosition.z
      value: 22
      objectReference: {fileID: 0}
    - target: {fileID: 7462833644942460673, guid: 1bf3c53846f793f45bf63ccc81d2ec52, type: 3}
      propertyPath: m_LocalRotation.w
      value: 1
      objectReference: {fileID: 0}
    - target: {fileID: 7462833644942460673, guid: 1bf3c53846f793f45bf63ccc81d2ec52, type: 3}
      propertyPath: m_LocalRotation.x
      value: 0
      objectReference: {fileID: 0}
    - target: {fileID: 7462833644942460673, guid: 1bf3c53846f793f45bf63ccc81d2ec52, type: 3}
      propertyPath: m_LocalRotation.y
      value: 0
      objectReference: {fileID: 0}
    - target: {fileID: 7462833644942460673, guid: 1bf3c53846f793f45bf63ccc81d2ec52, type: 3}
      propertyPath: m_LocalRotation.z
      value: 0
      objectReference: {fileID: 0}
    - target: {fileID: 7462833644942460673, guid: 1bf3c53846f793f45bf63ccc81d2ec52, type: 3}
      propertyPath: m_LocalEulerAnglesHint.x
      value: 0
      objectReference: {fileID: 0}
    - target: {fileID: 7462833644942460673, guid: 1bf3c53846f793f45bf63ccc81d2ec52, type: 3}
      propertyPath: m_LocalEulerAnglesHint.y
      value: 0
      objectReference: {fileID: 0}
    - target: {fileID: 7462833644942460673, guid: 1bf3c53846f793f45bf63ccc81d2ec52, type: 3}
      propertyPath: m_LocalEulerAnglesHint.z
      value: 0
      objectReference: {fileID: 0}
    - target: {fileID: 7582681201285737683, guid: 1bf3c53846f793f45bf63ccc81d2ec52, type: 3}
      propertyPath: m_Name
      value: DungeonRoom2
      objectReference: {fileID: 0}
    m_RemovedComponents: []
  m_SourcePrefab: {fileID: 100100000, guid: 1bf3c53846f793f45bf63ccc81d2ec52, type: 3}
--- !u!4 &1469580109 stripped
Transform:
  m_CorrespondingSourceObject: {fileID: 7462833644942460673, guid: 1bf3c53846f793f45bf63ccc81d2ec52, type: 3}
  m_PrefabInstance: {fileID: 1469580108}
  m_PrefabAsset: {fileID: 0}
--- !u!114 &1469580110 stripped
MonoBehaviour:
  m_CorrespondingSourceObject: {fileID: 6323193469164956252, guid: 1bf3c53846f793f45bf63ccc81d2ec52, type: 3}
  m_PrefabInstance: {fileID: 1469580108}
  m_PrefabAsset: {fileID: 0}
  m_GameObject: {fileID: 0}
  m_Enabled: 1
  m_EditorHideFlags: 0
  m_Script: {fileID: 11500000, guid: 5d2eedc745503324798f5f7a05f1de85, type: 3}
  m_Name: 
  m_EditorClassIdentifier: 
--- !u!1 &1469580111 stripped
GameObject:
  m_CorrespondingSourceObject: {fileID: 6407336651002705278, guid: 1bf3c53846f793f45bf63ccc81d2ec52, type: 3}
  m_PrefabInstance: {fileID: 1469580108}
  m_PrefabAsset: {fileID: 0}
--- !u!1 &1573001838 stripped
GameObject:
  m_CorrespondingSourceObject: {fileID: 3112748995944472702, guid: 8b6f1ff6d03a2f24aa759cfb4a46377a, type: 3}
  m_PrefabInstance: {fileID: 74556084}
  m_PrefabAsset: {fileID: 0}
--- !u!1 &1603553026 stripped
GameObject:
  m_CorrespondingSourceObject: {fileID: 4005500526663712273, guid: 8ff4679fb649f304daeeec226782c865, type: 3}
  m_PrefabInstance: {fileID: 2084161652}
  m_PrefabAsset: {fileID: 0}
--- !u!1001 &1648197065
PrefabInstance:
  m_ObjectHideFlags: 0
  serializedVersion: 2
  m_Modification:
    m_TransformParent: {fileID: 845327638}
    m_Modifications:
    - target: {fileID: 3579370308942170807, guid: db064811eac3cf043b501f2c91705438, type: 3}
      propertyPath: m_Name
      value: DungeonDoor
      objectReference: {fileID: 0}
    - target: {fileID: 4055907576919239177, guid: db064811eac3cf043b501f2c91705438, type: 3}
      propertyPath: m_RootOrder
      value: 6
      objectReference: {fileID: 0}
    - target: {fileID: 4055907576919239177, guid: db064811eac3cf043b501f2c91705438, type: 3}
      propertyPath: m_LocalPosition.x
      value: 0
      objectReference: {fileID: 0}
    - target: {fileID: 4055907576919239177, guid: db064811eac3cf043b501f2c91705438, type: 3}
      propertyPath: m_LocalPosition.y
      value: 0
      objectReference: {fileID: 0}
    - target: {fileID: 4055907576919239177, guid: db064811eac3cf043b501f2c91705438, type: 3}
      propertyPath: m_LocalPosition.z
      value: 18.75
      objectReference: {fileID: 0}
    - target: {fileID: 4055907576919239177, guid: db064811eac3cf043b501f2c91705438, type: 3}
      propertyPath: m_LocalRotation.w
      value: 0
      objectReference: {fileID: 0}
    - target: {fileID: 4055907576919239177, guid: db064811eac3cf043b501f2c91705438, type: 3}
      propertyPath: m_LocalRotation.x
      value: -0
      objectReference: {fileID: 0}
    - target: {fileID: 4055907576919239177, guid: db064811eac3cf043b501f2c91705438, type: 3}
      propertyPath: m_LocalRotation.y
      value: 1
      objectReference: {fileID: 0}
    - target: {fileID: 4055907576919239177, guid: db064811eac3cf043b501f2c91705438, type: 3}
      propertyPath: m_LocalRotation.z
      value: -0
      objectReference: {fileID: 0}
    - target: {fileID: 4055907576919239177, guid: db064811eac3cf043b501f2c91705438, type: 3}
      propertyPath: m_LocalEulerAnglesHint.x
      value: 0
      objectReference: {fileID: 0}
    - target: {fileID: 4055907576919239177, guid: db064811eac3cf043b501f2c91705438, type: 3}
      propertyPath: m_LocalEulerAnglesHint.y
      value: 180
      objectReference: {fileID: 0}
    - target: {fileID: 4055907576919239177, guid: db064811eac3cf043b501f2c91705438, type: 3}
      propertyPath: m_LocalEulerAnglesHint.z
      value: 0
      objectReference: {fileID: 0}
    - target: {fileID: 5460079875190739672, guid: db064811eac3cf043b501f2c91705438, type: 3}
      propertyPath: locked
      value: 1
      objectReference: {fileID: 0}
    - target: {fileID: 5460079875190739672, guid: db064811eac3cf043b501f2c91705438, type: 3}
      propertyPath: exitDoor
      value: 
      objectReference: {fileID: 1469580110}
    - target: {fileID: 5460079875190739672, guid: db064811eac3cf043b501f2c91705438, type: 3}
      propertyPath: doorExitGO
      value: 
      objectReference: {fileID: 1368236017}
    - target: {fileID: 5460079875190739672, guid: db064811eac3cf043b501f2c91705438, type: 3}
      propertyPath: cameraLogic
      value: 
      objectReference: {fileID: 0}
    - target: {fileID: 5460079875190739672, guid: db064811eac3cf043b501f2c91705438, type: 3}
      propertyPath: cameraWayPoint
      value: 
      objectReference: {fileID: 953966208}
    m_RemovedComponents: []
  m_SourcePrefab: {fileID: 100100000, guid: db064811eac3cf043b501f2c91705438, type: 3}
--- !u!1 &1962411105 stripped
GameObject:
  m_CorrespondingSourceObject: {fileID: 4005500526663712273, guid: 8ff4679fb649f304daeeec226782c865, type: 3}
  m_PrefabInstance: {fileID: 2009282545}
  m_PrefabAsset: {fileID: 0}
--- !u!1001 &2009282545
PrefabInstance:
  m_ObjectHideFlags: 0
  serializedVersion: 2
  m_Modification:
    m_TransformParent: {fileID: 0}
    m_Modifications:
    - target: {fileID: 3260527983463569651, guid: 8ff4679fb649f304daeeec226782c865, type: 3}
      propertyPath: m_RootOrder
      value: 10
      objectReference: {fileID: 0}
    - target: {fileID: 3260527983463569651, guid: 8ff4679fb649f304daeeec226782c865, type: 3}
      propertyPath: m_LocalPosition.x
      value: 5
      objectReference: {fileID: 0}
    - target: {fileID: 3260527983463569651, guid: 8ff4679fb649f304daeeec226782c865, type: 3}
      propertyPath: m_LocalPosition.y
      value: 1
      objectReference: {fileID: 0}
    - target: {fileID: 3260527983463569651, guid: 8ff4679fb649f304daeeec226782c865, type: 3}
      propertyPath: m_LocalPosition.z
      value: 16
      objectReference: {fileID: 0}
    - target: {fileID: 3260527983463569651, guid: 8ff4679fb649f304daeeec226782c865, type: 3}
      propertyPath: m_LocalRotation.w
      value: 1
      objectReference: {fileID: 0}
    - target: {fileID: 3260527983463569651, guid: 8ff4679fb649f304daeeec226782c865, type: 3}
      propertyPath: m_LocalRotation.x
      value: 0
      objectReference: {fileID: 0}
    - target: {fileID: 3260527983463569651, guid: 8ff4679fb649f304daeeec226782c865, type: 3}
      propertyPath: m_LocalRotation.y
      value: 0
      objectReference: {fileID: 0}
    - target: {fileID: 3260527983463569651, guid: 8ff4679fb649f304daeeec226782c865, type: 3}
      propertyPath: m_LocalRotation.z
      value: 0
      objectReference: {fileID: 0}
    - target: {fileID: 3260527983463569651, guid: 8ff4679fb649f304daeeec226782c865, type: 3}
      propertyPath: m_LocalEulerAnglesHint.x
      value: 0
      objectReference: {fileID: 0}
    - target: {fileID: 3260527983463569651, guid: 8ff4679fb649f304daeeec226782c865, type: 3}
      propertyPath: m_LocalEulerAnglesHint.y
      value: 0
      objectReference: {fileID: 0}
    - target: {fileID: 3260527983463569651, guid: 8ff4679fb649f304daeeec226782c865, type: 3}
      propertyPath: m_LocalEulerAnglesHint.z
      value: 0
      objectReference: {fileID: 0}
    - target: {fileID: 4005500526663712273, guid: 8ff4679fb649f304daeeec226782c865, type: 3}
      propertyPath: m_Name
      value: WaypointDefault
      objectReference: {fileID: 0}
    m_RemovedComponents: []
  m_SourcePrefab: {fileID: 100100000, guid: 8ff4679fb649f304daeeec226782c865, type: 3}
--- !u!1001 &2084161652
PrefabInstance:
  m_ObjectHideFlags: 0
  serializedVersion: 2
  m_Modification:
    m_TransformParent: {fileID: 0}
    m_Modifications:
    - target: {fileID: 3260527983463569651, guid: 8ff4679fb649f304daeeec226782c865, type: 3}
      propertyPath: m_RootOrder
      value: 12
      objectReference: {fileID: 0}
    - target: {fileID: 3260527983463569651, guid: 8ff4679fb649f304daeeec226782c865, type: 3}
      propertyPath: m_LocalPosition.x
      value: -5
      objectReference: {fileID: 0}
    - target: {fileID: 3260527983463569651, guid: 8ff4679fb649f304daeeec226782c865, type: 3}
      propertyPath: m_LocalPosition.y
      value: 1
      objectReference: {fileID: 0}
    - target: {fileID: 3260527983463569651, guid: 8ff4679fb649f304daeeec226782c865, type: 3}
      propertyPath: m_LocalPosition.z
      value: 16
      objectReference: {fileID: 0}
    - target: {fileID: 3260527983463569651, guid: 8ff4679fb649f304daeeec226782c865, type: 3}
      propertyPath: m_LocalRotation.w
      value: 1
      objectReference: {fileID: 0}
    - target: {fileID: 3260527983463569651, guid: 8ff4679fb649f304daeeec226782c865, type: 3}
      propertyPath: m_LocalRotation.x
      value: 0
      objectReference: {fileID: 0}
    - target: {fileID: 3260527983463569651, guid: 8ff4679fb649f304daeeec226782c865, type: 3}
      propertyPath: m_LocalRotation.y
      value: 0
      objectReference: {fileID: 0}
    - target: {fileID: 3260527983463569651, guid: 8ff4679fb649f304daeeec226782c865, type: 3}
      propertyPath: m_LocalRotation.z
      value: 0
      objectReference: {fileID: 0}
    - target: {fileID: 3260527983463569651, guid: 8ff4679fb649f304daeeec226782c865, type: 3}
      propertyPath: m_LocalEulerAnglesHint.x
      value: 0
      objectReference: {fileID: 0}
    - target: {fileID: 3260527983463569651, guid: 8ff4679fb649f304daeeec226782c865, type: 3}
      propertyPath: m_LocalEulerAnglesHint.y
      value: 0
      objectReference: {fileID: 0}
    - target: {fileID: 3260527983463569651, guid: 8ff4679fb649f304daeeec226782c865, type: 3}
      propertyPath: m_LocalEulerAnglesHint.z
      value: 0
      objectReference: {fileID: 0}
    - target: {fileID: 4005500526663712273, guid: 8ff4679fb649f304daeeec226782c865, type: 3}
      propertyPath: m_Name
      value: WaypointDefault
      objectReference: {fileID: 0}
    m_RemovedComponents: []
  m_SourcePrefab: {fileID: 100100000, guid: 8ff4679fb649f304daeeec226782c865, type: 3}
--- !u!1001 &2131940903
PrefabInstance:
  m_ObjectHideFlags: 0
  serializedVersion: 2
  m_Modification:
    m_TransformParent: {fileID: 0}
    m_Modifications:
    - target: {fileID: 3260527983463569651, guid: 8ff4679fb649f304daeeec226782c865, type: 3}
      propertyPath: m_RootOrder
      value: 9
      objectReference: {fileID: 0}
    - target: {fileID: 3260527983463569651, guid: 8ff4679fb649f304daeeec226782c865, type: 3}
      propertyPath: m_LocalPosition.x
      value: 11
      objectReference: {fileID: 0}
    - target: {fileID: 3260527983463569651, guid: 8ff4679fb649f304daeeec226782c865, type: 3}
      propertyPath: m_LocalPosition.y
      value: 1
      objectReference: {fileID: 0}
    - target: {fileID: 3260527983463569651, guid: 8ff4679fb649f304daeeec226782c865, type: 3}
      propertyPath: m_LocalPosition.z
      value: 16
      objectReference: {fileID: 0}
    - target: {fileID: 3260527983463569651, guid: 8ff4679fb649f304daeeec226782c865, type: 3}
      propertyPath: m_LocalRotation.w
      value: 1
      objectReference: {fileID: 0}
    - target: {fileID: 3260527983463569651, guid: 8ff4679fb649f304daeeec226782c865, type: 3}
      propertyPath: m_LocalRotation.x
      value: 0
      objectReference: {fileID: 0}
    - target: {fileID: 3260527983463569651, guid: 8ff4679fb649f304daeeec226782c865, type: 3}
      propertyPath: m_LocalRotation.y
      value: 0
      objectReference: {fileID: 0}
    - target: {fileID: 3260527983463569651, guid: 8ff4679fb649f304daeeec226782c865, type: 3}
      propertyPath: m_LocalRotation.z
      value: 0
      objectReference: {fileID: 0}
    - target: {fileID: 3260527983463569651, guid: 8ff4679fb649f304daeeec226782c865, type: 3}
      propertyPath: m_LocalEulerAnglesHint.x
      value: 0
      objectReference: {fileID: 0}
    - target: {fileID: 3260527983463569651, guid: 8ff4679fb649f304daeeec226782c865, type: 3}
      propertyPath: m_LocalEulerAnglesHint.y
      value: 0
      objectReference: {fileID: 0}
    - target: {fileID: 3260527983463569651, guid: 8ff4679fb649f304daeeec226782c865, type: 3}
      propertyPath: m_LocalEulerAnglesHint.z
      value: 0
      objectReference: {fileID: 0}
    - target: {fileID: 4005500526663712273, guid: 8ff4679fb649f304daeeec226782c865, type: 3}
      propertyPath: m_Name
      value: WaypointDefault
      objectReference: {fileID: 0}
    m_RemovedComponents: []
  m_SourcePrefab: {fileID: 100100000, guid: 8ff4679fb649f304daeeec226782c865, type: 3}
